﻿04:00:00 84.14709848
04:01:00 84.68318446
04:02:00 85.21080219
04:03:00 85.72989892
04:04:00 86.24042272
04:05:00 86.74232256
04:06:00 87.23554823
04:07:00 87.72005043
04:08:00 88.19578069
04:09:00 88.66269144
04:10:00 89.12073601
04:11:00 89.56986857
04:12:00 90.01004422
04:13:00 90.44121894
04:14:00 90.86334961
04:15:00 91.27639403
04:16:00 91.68031088
04:17:00 92.07505977
04:18:00 92.46060124
04:19:00 92.83689672
04:20:00 93.2039086
04:21:00 93.56160016
04:22:00 93.90993563
04:23:00 94.24888019
04:24:00 94.57839994
04:25:00 94.89846194
04:26:00 95.20903416
04:27:00 95.51008556
04:28:00 95.80158603
04:29:00 96.08350642
04:30:00 96.35581854
04:31:00 96.61849516
04:32:00 96.87151001
04:33:00 97.11483779
04:34:00 97.34845417
04:35:00 97.57233578
04:36:00 97.78646024
04:37:00 97.99080614
04:38:00 98.18535304
04:39:00 98.37008148
04:40:00 98.544973
04:41:00 98.7100101
04:42:00 98.86517629
04:43:00 99.01045603
04:44:00 99.14583482
04:45:00 99.2712991
04:46:00 99.38683634
04:47:00 99.49243498
04:48:00 99.58808445
04:49:00 99.6737752
04:50:00 99.74949866
04:51:00 99.81524725
04:52:00 99.8710144
04:53:00 99.91679453
04:54:00 99.95258306
04:55:00 99.97837642
04:56:00 99.99417202
04:57:00 99.99996829
04:58:00 99.99576465
04:59:00 99.98156151
05:00:00 99.9573603
05:01:00 99.92316344
05:02:00 99.87897435
05:03:00 99.82479744
05:04:00 99.76063813
05:05:00 99.68650285
05:06:00 99.60239899
05:07:00 99.50833498
05:08:00 99.40432022
05:09:00 99.29036511
05:10:00 99.16648105
05:11:00 99.03268042
05:12:00 98.8889766
05:13:00 98.73538397
05:14:00 98.57191788
05:15:00 98.39859469
05:16:00 98.21543171
05:17:00 98.02244728
05:18:00 97.81966068
05:19:00 97.6070922
05:20:00 97.38476309
05:21:00 97.15269558
05:22:00 96.91091289
05:23:00 96.65943918
05:24:00 96.39829962
05:25:00 96.1275203
05:26:00 95.84712831
05:27:00 95.55715169
05:28:00 95.25761943
05:29:00 94.94856149
05:30:00 94.63000877
05:31:00 94.30199313
05:32:00 93.96454737
05:33:00 93.61770523
05:34:00 93.2615014
05:35:00 92.8959715
05:36:00 92.52115208
05:37:00 92.13708062
05:38:00 91.74379553
05:39:00 91.34133613
05:40:00 90.92974268
05:41:00 90.50905633
05:42:00 90.07931915
05:43:00 89.64057412
05:44:00 89.1928651
05:45:00 88.73623686
05:46:00 88.27073508
05:47:00 87.7964063
05:48:00 87.31329795
05:49:00 86.82145834
05:50:00 86.32093666
05:51:00 85.81178296
05:52:00 85.29404816
05:53:00 84.76778401
05:54:00 84.23304316
05:55:00 83.68987908
05:56:00 83.13834608
05:57:00 82.57849931
05:58:00 82.01039476
05:59:00 81.43408924
06:00:00 80.84964038
06:01:00 80.25710662
06:02:00 79.65654722
06:03:00 79.04802223
06:04:00 78.43159251
06:05:00 77.80731969
06:06:00 77.1752662
06:07:00 76.53549525
06:08:00 75.88807082
06:09:00 75.23305764
06:10:00 74.57052122
06:11:00 73.90052781
06:12:00 73.2231444
06:13:00 72.53843875
06:14:00 71.84647931
06:15:00 71.14733528
06:16:00 70.44107658
06:17:00 69.72777383
06:18:00 69.00749836
06:19:00 68.28032219
06:20:00 67.54631806
06:21:00 66.80555934
06:22:00 66.05812013
06:23:00 65.30407516
06:24:00 64.54349983
06:25:00 63.77647021
06:26:00 63.003063
06:27:00 62.22335553
06:28:00 61.43742578
06:29:00 60.64535234
06:30:00 59.84721441
06:31:00 59.04309181
06:32:00 58.23306495
06:33:00 57.41721484
06:34:00 56.59562304
06:35:00 55.76837174
06:36:00 54.93554364
06:37:00 54.09722204
06:38:00 53.25349076
06:39:00 52.40443417
06:40:00 51.55013718
06:41:00 50.69068522
06:42:00 49.82616424
06:43:00 48.95666068
06:44:00 48.0822615
06:45:00 47.20305413
06:46:00 46.31912649
06:47:00 45.43056698
06:48:00 44.53746445
06:49:00 43.63990822
06:50:00 42.73798802
06:51:00 41.83179407
06:52:00 40.92141697
06:53:00 40.00694776
06:54:00 39.08847789
06:55:00 38.16609921
06:56:00 37.23990394
06:57:00 36.30998472
06:58:00 35.37643453
06:59:00 34.43934673
07:00:00 33.49881502
07:01:00 32.55493345
07:02:00 31.60779642
07:03:00 30.65749864
07:04:00 29.70413513
07:05:00 28.74780123
07:06:00 27.78859258
07:07:00 26.82660509
07:08:00 25.86193497
07:09:00 24.89467867
07:10:00 23.92493292
07:11:00 22.9527947
07:12:00 21.97836122
07:13:00 21.00172993
07:14:00 20.02299847
07:15:00 19.04226474
07:16:00 18.05962679
07:17:00 17.0751829
07:18:00 16.0890315
07:19:00 15.10127121
07:20:00 14.11200081
07:21:00 13.12131922
07:22:00 12.1293255
07:23:00 11.13611887
07:24:00 10.14179863
07:25:00 9.146464223
07:26:00 8.150215176
07:27:00 7.153151114
07:28:00 6.155371743
07:29:00 5.15697684
07:30:00 4.158066243
07:31:00 3.158739844
07:32:00 2.159097573
07:33:00 1.159239394
07:34:00 0.159265292
07:35:00 -0.840724737
07:36:00 -1.840630693
07:37:00 -2.840352588
07:38:00 -3.839790451
07:39:00 -4.838844337
07:40:00 -5.837414343
07:41:00 -6.835400612
07:42:00 -7.832703347
07:43:00 -8.829222818
07:44:00 -9.824859375
07:45:00 -10.81951345
07:46:00 -11.81308559
07:47:00 -12.80547643
07:48:00 -13.79658673
07:49:00 -14.78631738
07:50:00 -15.77456941
07:51:00 -16.761244
07:52:00 -17.74624248
07:53:00 -18.72946635
07:54:00 -19.71081729
07:55:00 -20.69019717
07:56:00 -21.66750804
07:57:00 -22.64265218
07:58:00 -23.61553207
07:59:00 -24.58605043
08:00:00 -25.5541102
08:01:00 -26.51961459
08:02:00 -27.48246703
08:03:00 -28.44257125
08:04:00 -29.39983124
08:05:00 -30.35415127
08:06:00 -31.30543591
08:07:00 -32.25359003
08:08:00 -33.19851882
08:09:00 -34.14012779
08:10:00 -35.07832277
08:11:00 -36.01300995
08:12:00 -36.94409585
08:13:00 -37.87148738
08:14:00 -38.79509179
08:15:00 -39.71481673
08:16:00 -40.63057021
08:17:00 -41.54226068
08:18:00 -42.44979695
08:19:00 -43.35308828
08:20:00 -44.25204433
08:21:00 -45.14657522
08:22:00 -46.03659148
08:23:00 -46.92200413
08:24:00 -47.80272461
08:25:00 -48.67866487
08:26:00 -49.54973729
08:27:00 -50.41585479
08:28:00 -51.27693074
08:29:00 -52.13287904
08:30:00 -52.98361409
08:31:00 -53.82905083
08:32:00 -54.66910471
08:33:00 -55.50369172
08:34:00 -56.33272841
08:35:00 -57.15613187
08:36:00 -57.97381977
08:37:00 -58.78571034
08:38:00 -59.59172238
08:39:00 -60.3917753
08:40:00 -61.18578909
08:41:00 -61.97368436
08:42:00 -62.75538231
08:43:00 -63.53080477
08:44:00 -64.29987421
08:45:00 -65.06251371
08:46:00 -65.81864701
08:47:00 -66.5681985
08:48:00 -67.31109323
08:49:00 -68.04725691
08:50:00 -68.77661592
08:51:00 -69.49909732
08:52:00 -70.21462887
08:53:00 -70.92313902
08:54:00 -71.62455691
08:55:00 -72.31881241
08:56:00 -73.00583608
08:57:00 -73.68555924
08:58:00 -74.35791389
08:59:00 -75.02283282
09:00:00 -75.68024953
09:01:00 -76.33009828
09:02:00 -76.97231408
09:03:00 -77.60683271
09:04:00 -78.23359072
09:05:00 -78.85252544
09:06:00 -79.46357498
09:07:00 -80.06667822
09:08:00 -80.66177486
09:09:00 -81.24880539
09:10:00 -81.82771111
09:11:00 -82.39843412
09:12:00 -82.96091736
09:13:00 -83.51510458
09:14:00 -84.06094036
09:15:00 -84.59837011
09:16:00 -85.12734009
09:17:00 -85.64779742
09:18:00 -86.15969003
09:19:00 -86.66296675
09:20:00 -87.15757724
09:21:00 -87.64347205
09:22:00 -88.12060258
09:23:00 -88.58892113
09:24:00 -89.04838086
09:25:00 -89.49893582
09:26:00 -89.94054097
09:27:00 -90.37315214
09:28:00 -90.79672606
09:29:00 -91.21122039
09:30:00 -91.61659367
09:31:00 -92.01280538
09:32:00 -92.39981587
09:33:00 -92.77758646
09:34:00 -93.14607938
09:35:00 -93.50525776
09:36:00 -93.85508569
09:37:00 -94.19552819
09:38:00 -94.52655122
09:39:00 -94.84812167
09:40:00 -95.16020739
09:41:00 -95.46277717
09:42:00 -95.75580074
09:43:00 -96.03924882
09:44:00 -96.31309306
09:45:00 -96.57730606
09:46:00 -96.83186142
09:47:00 -97.07673367
09:48:00 -97.31189832
09:49:00 -97.53733187
09:50:00 -97.75301177
09:51:00 -97.95891644
09:52:00 -98.15502531
09:53:00 -98.34131875
09:54:00 -98.51777815
09:55:00 -98.68438585
09:56:00 -98.84112519
09:57:00 -98.98798051
09:58:00 -99.12493711
09:59:00 -99.25198129
10:00:00 -99.36910036
10:01:00 -99.47628261
10:02:00 -99.57351731
10:03:00 -99.66079474
10:04:00 -99.73810617
10:05:00 -99.80544388
10:06:00 -99.86280112
10:07:00 -99.91017217
10:08:00 -99.94755228
10:09:00 -99.97493772
10:10:00 -99.99232576
10:11:00 -99.99971464
10:12:00 -99.99710363
10:13:00 -99.984493
10:14:00 -99.961884
10:15:00 -99.9292789
10:16:00 -99.88668095
10:17:00 -99.83409442
10:18:00 -99.77152456
10:19:00 -99.69897763
10:20:00 -99.61646088
10:21:00 -99.52398258
10:22:00 -99.42155195
10:23:00 -99.30917926
10:24:00 -99.18687573
10:25:00 -99.0546536
10:26:00 -98.91252608
10:27:00 -98.76050739
10:28:00 -98.59861274
10:29:00 -98.4268583
10:30:00 -98.24526126
10:31:00 -98.05383978
10:32:00 -97.85261299
10:33:00 -97.64160103
10:34:00 -97.42082499
10:35:00 -97.19030694
10:36:00 -96.95006995
10:37:00 -96.70013802
10:38:00 -96.44053617
10:39:00 -96.17129034
10:40:00 -95.89242747
10:41:00 -95.60397543
10:42:00 -95.30596307
10:43:00 -94.9984202
10:44:00 -94.68137756
10:45:00 -94.35486686
10:46:00 -94.01892076
10:47:00 -93.67357284
10:48:00 -93.31885765
10:49:00 -92.95481064
10:50:00 -92.58146823
10:51:00 -92.19886775
10:52:00 -91.80704747
10:53:00 -91.40604655
10:54:00 -90.99590511
10:55:00 -90.57666415
10:56:00 -90.1483656
10:57:00 -89.71105228
10:58:00 -89.26476794
10:59:00 -88.8095572
11:00:00 -88.34546557
11:01:00 -87.87253947
11:02:00 -87.39082619
11:03:00 -86.9003739
11:04:00 -86.40123165
11:05:00 -85.89344934
11:06:00 -85.37707776
11:07:00 -84.85216855
11:08:00 -84.31877419
11:09:00 -83.77694802
11:10:00 -83.22674422
11:11:00 -82.66821782
11:12:00 -82.10142467
11:13:00 -81.52642144
11:14:00 -80.94326564
11:15:00 -80.35201559
11:16:00 -79.75273039
11:17:00 -79.14546999
11:18:00 -78.53029511
11:19:00 -77.90726726
11:20:00 -77.27644876
11:21:00 -76.63790267
11:22:00 -75.99169285
11:23:00 -75.33788393
11:24:00 -74.67654129
11:25:00 -74.00773105
11:26:00 -73.3315201
11:27:00 -72.64797606
11:28:00 -71.95716728
11:29:00 -71.25916285
11:30:00 -70.55403256
11:31:00 -69.84184692
11:32:00 -69.12267716
11:33:00 -68.39659519
11:34:00 -67.66367361
11:35:00 -66.92398573
11:36:00 -66.1776055
11:37:00 -65.42460757
11:38:00 -64.66506723
11:39:00 -63.89906043
11:40:00 -63.12666379
11:41:00 -62.34795453
11:42:00 -61.56301053
11:43:00 -60.77191027
11:44:00 -59.97473288
11:45:00 -59.17155806
11:46:00 -58.36246614
11:47:00 -57.54753802
11:48:00 -56.72685519
11:49:00 -55.90049973
11:50:00 -55.06855426
11:51:00 -54.23110198
11:52:00 -53.38822664
11:53:00 -52.54001252
11:54:00 -51.68654444
11:55:00 -50.82790775
11:56:00 -49.96418831
11:57:00 -49.0954725
11:58:00 -48.22184717
11:59:00 -47.34339971
12:00:00 -46.46021794
12:01:00 -45.57239019
12:02:00 -44.68000524
12:03:00 -43.78315233
12:04:00 -42.88192113
12:05:00 -41.97640178
12:06:00 -41.06668483
12:07:00 -40.15286124
12:08:00 -39.2350224
12:09:00 -38.31326009
12:10:00 -37.38766648
12:11:00 -36.45833414
12:12:00 -35.525356
12:13:00 -34.58882535
12:14:00 -33.64883585
12:15:00 -32.70548149
12:16:00 -31.75885661
12:17:00 -30.80905587
12:18:00 -29.85617425
12:19:00 -28.90030704
12:20:00 -27.94154982
12:21:00 -26.97999847
12:22:00 -26.01574914
12:23:00 -25.04889826
12:24:00 -24.07954251
12:25:00 -23.10777883
12:26:00 -22.13370439
12:27:00 -21.15741659
12:28:00 -20.17901308
12:29:00 -19.19859167
12:30:00 -18.21625043
12:31:00 -17.23208757
12:32:00 -16.24620152
12:33:00 -15.25869086
12:34:00 -14.26965435
12:35:00 -13.27919089
12:36:00 -12.28739951
12:37:00 -11.29437941
12:38:00 -10.30022987
12:39:00 -9.305050326
12:40:00 -8.308940282
12:41:00 -7.31199935
12:42:00 -6.314327225
12:43:00 -5.316023672
12:44:00 -4.317188521
12:45:00 -3.317921655
12:46:00 -2.318322999
12:47:00 -1.318492513
12:48:00 -0.318530179
12:49:00 0.681464007
12:50:00 1.681390048
12:51:00 2.681147952
12:52:00 3.680637743
12:53:00 4.679759473
12:54:00 5.678413231
12:55:00 6.676499152
12:56:00 7.673917429
12:57:00 8.670568321
12:58:00 9.666352163
12:59:00 10.66116938
13:00:00 11.65492049
13:01:00 12.64750611
13:02:00 13.63882699
13:03:00 14.62878401
13:04:00 15.61727815
13:05:00 16.60421059
13:06:00 17.58948261
13:07:00 18.5729957
13:08:00 19.55465151
13:09:00 20.53435187
13:10:00 21.51199881
13:11:00 22.48749457
13:12:00 23.46074159
13:13:00 24.43164257
13:14:00 25.4001004
13:15:00 26.36601824
13:16:00 27.3292995
13:17:00 28.28984785
13:18:00 29.24756724
13:19:00 30.2023619
13:20:00 31.15413635
13:21:00 32.10279541
13:22:00 33.04824422
13:23:00 33.99038823
13:24:00 34.92913323
13:25:00 35.86438535
13:26:00 36.79605106
13:27:00 37.72403719
13:28:00 38.64825095
13:29:00 39.56859992
13:30:00 40.48499206
13:31:00 41.39733574
13:32:00 42.30553971
13:33:00 43.20951317
13:34:00 44.10916572
13:35:00 45.00440738
13:36:00 45.89514864
13:37:00 46.78130042
13:38:00 47.66277411
13:39:00 48.53948157
13:40:00 49.41133511
13:41:00 50.27824757
13:42:00 51.14013224
13:43:00 51.99690294
13:44:00 52.84847399
13:45:00 53.69476024
13:46:00 54.53567706
13:47:00 55.37114036
13:48:00 56.20106659
13:49:00 57.02537276
13:50:00 57.84397644
13:51:00 58.65679577
13:52:00 59.46374947
13:53:00 60.26475684
13:54:00 61.05973779
13:55:00 61.84861282
13:56:00 62.63130303
13:57:00 63.40773017
13:58:00 64.17781659
13:59:00 64.94148528
14:00:00 65.69865987
14:01:00 66.44926466
14:02:00 67.19322457
14:03:00 67.93046521
14:04:00 68.66091287
14:05:00 69.38449449
14:06:00 70.10113772
14:07:00 70.8107709
14:08:00 71.51332306
14:09:00 72.20872394
14:10:00 72.89690401
14:11:00 73.57779446
14:12:00 74.25132718
14:13:00 74.91743483
14:14:00 75.57605081
14:15:00 76.22710924
14:16:00 76.87054502
14:17:00 77.50629381
14:18:00 78.13429204
14:19:00 78.7544769
14:20:00 79.36678638
14:21:00 79.97115925
14:22:00 80.56753507
14:23:00 81.15585421
14:24:00 81.73605782
14:25:00 82.3080879
14:26:00 82.87188724
14:27:00 83.42739946
14:28:00 83.974569
14:29:00 84.51334117
